REGION,DISTRICT
Banadir,Dayniile
Banadir,Dharkenley
Banadir,Hodan
Banadir,Mogadishu
Banadir,Cabdulcasiis
Banadir,Bulla-Warbo
Banadir,Cubeyd
Banadir,Geedoole
Banadir,Doolaawe
Banadir,Rabi-Suge
Banadir,Nimcaan
Banadir,Aflah
Banadir,Ramadheer
Banadir,Kurtuun Warey
Banadir,Iiman
Banadir,ZanZibaa
Banadir,Kamiil
Banadir,Farsamo
Banadir,Shaqlane
Banadir,Zabiid
Banadir,Al-raxma
Banadir,Manaas
Banadir,Galcaad
Banadir,Gumeysidiid
Banadir,Bismilahi
Banadir,Wardhiigleey
Banadir,Wadajir
Banadir,Boondheere
Banadir,Karaan
Banadir,Waaberi
Banadir,Xamar Weyne
Banadir,Hawl Wadaag
Banadir,Hamar Jab Jab
Banadir,Hamar Wayne
