region,cash_data_district,cod_district,note
Mudug,"xarardheere","Xarardheere",
Mudug,"Jariban","Jariiban",
Mudug,"Galckayo Town N","Gaalkacyo", remove the town/rural split
Mudug,"Galkayio rural","Gaalkacyo", remove the town/rural split
Sool region,"Ainabo","Caynabo",
Sool region,"Taleeh","Taleex",
Galgaduud,"Garowe","Garoowe",
Galgaduud,"Dangoronyo","Dangorayo", internal consistency (not in adm2 data) 
Galgaduud,"Abudwak","Cabudwaaq", http://reliefweb.int/sites/reliefweb.int/files/resources/120222_OCHASom_Administrative_Map_Galgaduud_Caabudwaaq_A3.pdf
Woqooyi Galbeed,"Hargeisa","Hargeysa",
Shabelle Dhexe,"Adan yabaale","Adan Yabaal",
Shabelle Hoose,"Afgoye Town IDP","Afgooye",
Shabelle Hoose,"Kurtunwarey","Kurtunwaarey",
Shabelle Hoose,"Wanalweyn Town","Wanla Weyn",
Shabelle Hoosey,"Barawe","Baraawe",
Bay,"Dinsoor","Diinsoor",
Bakool,"Wajid","Waajid",
Bakool,"Hudur","Xudur",
Togdheer,"Odweyne","Owdweyne",
Hiraan,"Beletweyne","Belet Weyne",
Hiraan,"Beletweyn","Belet Weyne",
Bari,"Gardo","Qardho",
Bari,"Banderbayla","Bandarbeyla",
Bari,"Bandarbayla", "Bandarbeyla",
Bari,"Iskushban","Iskushuban",
"Juba Hoose", "Kismayo", "Kismaayo",
